

 NAS Parallel Benchmarks 3.4 -- IS Benchmark

 Size:  134217728  (class C)
 Iterations:   10
 Number of processes:     16
[PI-INFO] Init time,11,2.013650
[PI-INFO] Init time,5,2.012915
[PI-INFO] Init time,4,2.014799
[PI-INFO] Init time,6,2.012234
[PI-INFO] Init time,9,2.015770
[PI-INFO] Init time,10,2.016231
[PI-INFO] Init time,3,2.017352
[PI-INFO] Init time,12,2.015631
[PI-INFO] Init time,13,2.014803
[PI-INFO] Init time,8,2.018204
[PI-INFO] Init time,7,2.013784
[PI-INFO] Init time,2,2.021622
[PI-INFO] Init time,1,2.023181
[PI-INFO] Init time,14,2.018492
[PI-INFO] Init time,15,2.024304

   iteration
[PI-INFO] Init time,0,2.038398
        1
[PI-INFO] Paramount Iteration,12,1,2.252589,0.236958
[RU-INFO] Resources Stats,12,1,1.456750,0.339243,112972,0,0,0,1820,12,0,744,0,0,0,0,2308,74
[NT-INFO] Network Stats,12,1,ens4,66532343484,2525285,0,0,0,0,0,0,66121225508,2588601,0,0,0,0,0,0
[NT-INFO] Network Stats,12,1,lo,636092,2448,0,0,0,0,0,0,636092,2448,0,0,0,0,0,0
[PI-INFO] Paramount Iteration,13,1,2.252838,0.238035
[RU-INFO] Resources Stats,13,1,1.467685,0.334664,113044,0,0,0,1810,11,0,568,0,0,0,0,2299,69
[NT-INFO] Network Stats,13,1,ens4,66532343616,2525287,0,0,0,0,0,0,66121325009,2588607,0,0,0,0,0,0
[NT-INFO] Network Stats,13,1,lo,636092,2448,0,0,0,0,0,0,636092,2448,0,0,0,0,0,0
[PI-INFO] Paramount Iteration,10,1,2.256805,0.240574
[RU-INFO] Resources Stats,10,1,1.470702,0.335703,113336,0,0,0,1830,12,0,640,0,0,0,0,2310,70
[NT-INFO] Network Stats,10,1,ens4,66532343748,2525289,0,0,0,0,0,0,66121362954,2588611,0,0,0,0,0,0
[NT-INFO] Network Stats,10,1,lo,636092,2448,0,0,0,0,0,0,636092,2448,0,0,0,0,0,0
[PI-INFO] Paramount Iteration,11,1,2.256962,0.243312
[RU-INFO] Resources Stats,11,1,1.467041,0.338854,115132,0,0,0,1809,14,0,432,0,0,0,0,2292,75
[NT-INFO] Network Stats,11,1,ens4,66532343880,2525291,0,0,0,0,0,0,66121363719,2588615,0,0,0,0,0,0
[PI-INFO] Paramount Iteration,14,1,2.253535,0.235043
[NT-INFO] Network Stats,11,1,lo,636092,2448,0,0,0,0,0,0,636092,2448,0,0,0,0,0,0
[PI-INFO] Paramount Iteration,1,1,2.258566,0.235385
[RU-INFO] Resources Stats,14,1,1.484273,0.324935,115184,0,0,0,1833,11,0,160,0,0,0,0,2297,49
[NT-INFO] Network Stats,14,1,ens4,66532343880,2525291,0,0,0,0,0,0,66121363990,2588617,0,0,0,0,0,0
[RU-INFO] Resources Stats,1,1,1.531249,0.277312,115108,0,0,0,1819,13,0,696,0,0,0,0,2310,76
[NT-INFO] Network Stats,1,1,lo,626804,2322,0,0,0,0,0,0,626804,2322,0,0,0,0,0,0
[NT-INFO] Network Stats,1,1,ens4,66337080318,2517857,0,0,0,0,0,0,66363900574,2343934,0,0,0,0,0,0
[NT-INFO] Network Stats,14,1,lo,636092,2448,0,0,0,0,0,0,636092,2448,0,0,0,0,0,0
[PI-INFO] Paramount Iteration,9,1,2.258213,0.242443
[RU-INFO] Resources Stats,9,1,1.472629,0.336143,113108,0,0,0,1822,19,0,1376,0,0,0,0,2306,58
[NT-INFO] Network Stats,9,1,ens4,66532344078,2525294,0,0,0,0,0,0,66121365231,2588623,0,0,0,0,0,0
[NT-INFO] Network Stats,9,1,lo,636092,2448,0,0,0,0,0,0,636092,2448,0,0,0,0,0,0
[PI-INFO] Paramount Iteration,6,1,2.255943,0.243709
[RU-INFO] Resources Stats,6,1,1.545025,0.267642,113228,0,0,0,1811,11,0,480,0,0,0,0,2295,67
[NT-INFO] Network Stats,6,1,lo,626804,2322,0,0,0,0,0,0,626804,2322,0,0,0,0,0,0
[NT-INFO] Network Stats,6,1,ens4,66337082409,2517866,0,0,0,0,0,0,66363900838,2343938,0,0,0,0,0,0
[PI-INFO] Paramount Iteration,2,1,2.260561,0.238939
[RU-INFO] Resources Stats,2,1,1.534447,0.276440,114860,0,0,0,1836,11,0,1016,0,0,0,0,2306,72
[NT-INFO] Network Stats,2,1,lo,626804,2322,0,0,0,0,0,0,626804,2322,0,0,0,0,0,0
[NT-INFO] Network Stats,2,1,ens4,66337082409,2517866,0,0,0,0,0,0,66363900838,2343938,0,0,0,0,0,0
[PI-INFO] Paramount Iteration,3,1,2.260486,0.243134
[RU-INFO] Resources Stats,3,1,1.516195,0.290335,115208,0,0,0,1807,11,0,776,0,0,0,0,2305,90
[NT-INFO] Network Stats,3,1,lo,626804,2322,0,0,0,0,0,0,626804,2322,0,0,0,0,0,0
[NT-INFO] Network Stats,3,1,ens4,66337082409,2517866,0,0,0,0,0,0,66363900838,2343938,0,0,0,0,0,0
[PI-INFO] Paramount Iteration,8,1,2.259924,0.241720
[RU-INFO] Resources Stats,8,1,1.493936,0.317260,115048,0,0,0,1813,18,0,904,0,0,0,0,2321,52
[NT-INFO] Network Stats,8,1,ens4,66532344210,2525296,0,0,0,0,0,0,66121464328,2588628,0,0,0,0,0,0
[NT-INFO] Network Stats,8,1,lo,636092,2448,0,0,0,0,0,0,636092,2448,0,0,0,0,0,0
[PI-INFO] Paramount Iteration,5,1,2.258528,0.245613
[PI-INFO] Paramount Iteration,4,1,2.259899,0.245100
[RU-INFO] Resources Stats,5,1,1.552592,0.257424,115240,0,0,0,1817,10,0,416,0,0,0,0,2311,33
[NT-INFO] Network Stats,5,1,lo,626804,2322,0,0,0,0,0,0,626804,2322,0,0,0,0,0,0
[NT-INFO] Network Stats,5,1,ens4,66337083336,2517870,0,0,0,0,0,0,66363900970,2343940,0,0,0,0,0,0
[RU-INFO] Resources Stats,4,1,1.547795,0.266721,115192,0,0,0,1828,12,0,792,0,0,0,0,2306,55
[NT-INFO] Network Stats,4,1,lo,626804,2322,0,0,0,0,0,0,626804,2322,0,0,0,0,0,0
[NT-INFO] Network Stats,4,1,ens4,66337083336,2517870,0,0,0,0,0,0,66363900970,2343940,0,0,0,0,0,0
[PI-INFO] Paramount Iteration,7,1,2.256589,0.242805
[RU-INFO] Resources Stats,7,1,1.552915,0.262180,113300,0,0,0,1807,11,0,368,0,0,0,0,2303,45
[NT-INFO] Network Stats,7,1,lo,626804,2322,0,0,0,0,0,0,626804,2322,0,0,0,0,0,0
[NT-INFO] Network Stats,7,1,ens4,66337083336,2517870,0,0,0,0,0,0,66363900970,2343940,0,0,0,0,0,0
[PI-INFO] Paramount Iteration,15,1,2.259363,0.235059
[RU-INFO] Resources Stats,15,1,1.465885,0.347498,112952,0,0,0,1808,25,0,1768,0,0,0,0,2276,104
[NT-INFO] Network Stats,15,1,ens4,66532344342,2525298,0,0,0,0,0,0,66121529858,2588632,0,0,0,0,0,0
[NT-INFO] Network Stats,15,1,lo,636092,2448,0,0,0,0,0,0,636092,2448,0,0,0,0,0,0
[PI-INFO] Paramount Iteration,0,1,2.269875,0.231477
[RU-INFO] Resources Stats,0,1,1.496966,0.324209,115040,0,0,0,1806,24,0,1992,0,0,0,0,2311,84
[NT-INFO] Network Stats,0,1,lo,626804,2322,0,0,0,0,0,0,626804,2322,0,0,0,0,0,0
[NT-INFO] Network Stats,0,1,ens4,66337084269,2517874,0,0,0,0,0,0,66363901102,2343942,0,0,0,0,0,0
        2
[PI-INFO] Paramount Iteration,6,2,2.475221,0.219278
[RU-INFO] Resources Stats,6,2,1.655203,0.376366,113228,0,0,0,1813,11,0,480,0,0,0,0,2295,84
[NT-INFO] Network Stats,6,2,lo,626804,2322,0,0,0,0,0,0,626804,2322,0,0,0,0,0,0
[NT-INFO] Network Stats,6,2,ens4,66472610735,2524474,0,0,0,0,0,0,66495641238,2350009,0,0,0,0,0,0
[PI-INFO] Paramount Iteration,9,2,2.479067,0.220854
[PI-INFO] Paramount Iteration,8,2,2.479198,0.219274
[RU-INFO] Resources Stats,9,2,1.588858,0.440237,113108,0,0,0,1822,19,0,1376,0,0,0,0,2306,78
[NT-INFO] Network Stats,9,2,ens4,66664323152,2531690,0,0,0,0,0,0,66256557237,2595007,0,0,0,0,0,0
[NT-INFO] Network Stats,9,2,lo,636092,2448,0,0,0,0,0,0,636092,2448,0,0,0,0,0,0
[RU-INFO] Resources Stats,8,2,1.612015,0.418078,115048,0,0,0,1813,18,0,904,0,0,0,0,2321,65
[NT-INFO] Network Stats,8,2,ens4,66664323152,2531690,0,0,0,0,0,0,66256557237,2595007,0,0,0,0,0,0
[NT-INFO] Network Stats,8,2,lo,636092,2448,0,0,0,0,0,0,636092,2448,0,0,0,0,0,0
[PI-INFO] Paramount Iteration,5,2,2.478046,0.219518
[RU-INFO] Resources Stats,5,2,1.683824,0.345605,115240,0,0,0,1818,10,0,416,0,0,0,0,2311,40
[NT-INFO] Network Stats,5,2,lo,626804,2322,0,0,0,0,0,0,626804,2322,0,0,0,0,0,0
[NT-INFO] Network Stats,5,2,ens4,66472612438,2524481,0,0,0,0,0,0,66495641700,2350016,0,0,0,0,0,0
[PI-INFO] Paramount Iteration,7,2,2.475131,0.218542
[RU-INFO] Resources Stats,7,2,1.674267,0.359059,113300,0,0,0,1809,11,0,368,0,0,0,0,2303,58
[NT-INFO] Network Stats,7,2,lo,626804,2322,0,0,0,0,0,0,626804,2322,0,0,0,0,0,0
[NT-INFO] Network Stats,7,2,ens4,66472612438,2524481,0,0,0,0,0,0,66495641700,2350016,0,0,0,0,0,0
[PI-INFO] Paramount Iteration,4,2,2.481029,0.221130
[RU-INFO] Resources Stats,4,2,1.676590,0.358693,115192,0,0,0,1829,12,0,792,0,0,0,0,2306,72
[NT-INFO] Network Stats,4,2,lo,626804,2322,0,0,0,0,0,0,626804,2322,0,0,0,0,0,0
[NT-INFO] Network Stats,4,2,ens4,66472612438,2524481,0,0,0,0,0,0,66495641700,2350016,0,0,0,0,0,0
[PI-INFO] Paramount Iteration,2,2,2.682039,0.421478
[RU-INFO] Resources Stats,2,2,1.724010,0.508003,115140,0,0,0,1840,11,0,1016,0,0,0,0,2306,89
[NT-INFO] Network Stats,2,2,lo,626804,2322,0,0,0,0,0,0,626804,2322,0,0,0,0,0,0
[NT-INFO] Network Stats,2,2,ens4,66472621368,2524608,0,0,0,0,0,0,66500575980,2350168,0,0,0,0,0,0
[PI-INFO] Paramount Iteration,3,2,2.682530,0.422044
[RU-INFO] Resources Stats,3,2,1.660892,0.567035,115208,0,0,0,1814,11,0,776,0,0,0,0,2305,119
[NT-INFO] Network Stats,3,2,lo,626804,2322,0,0,0,0,0,0,626804,2322,0,0,0,0,0,0
[NT-INFO] Network Stats,3,2,ens4,66472621368,2524608,0,0,0,0,0,0,66500575980,2350168,0,0,0,0,0,0
[PI-INFO] Paramount Iteration,1,2,2.683902,0.425336
[RU-INFO] Resources Stats,1,2,1.735327,0.498103,115108,0,0,0,1822,13,0,696,0,0,0,0,2310,97
[NT-INFO] Network Stats,1,2,lo,626804,2322,0,0,0,0,0,0,626804,2322,0,0,0,0,0,0
[NT-INFO] Network Stats,1,2,ens4,66472621368,2524608,0,0,0,0,0,0,66500575980,2350168,0,0,0,0,0,0
[PI-INFO] Paramount Iteration,13,2,2.681324,0.428486
[RU-INFO] Resources Stats,13,2,1.647547,0.582669,113044,0,0,0,1810,11,0,568,0,0,0,0,2299,90
[NT-INFO] Network Stats,13,2,ens4,66669378152,2531846,0,0,0,0,0,0,66256831347,2595142,0,0,0,0,0,0
[NT-INFO] Network Stats,13,2,lo,636092,2448,0,0,0,0,0,0,636092,2448,0,0,0,0,0,0
[PI-INFO] Paramount Iteration,14,2,2.680864,0.427329
[RU-INFO] Resources Stats,14,2,1.679068,0.557018,115184,0,0,0,1833,11,0,160,0,0,0,0,2297,62
[PI-INFO] Paramount Iteration,12,2,2.683591,0.431002
[NT-INFO] Network Stats,14,2,ens4,66669378416,2531850,0,0,0,0,0,0,66256832178,2595147,0,0,0,0,0,0
[NT-INFO] Network Stats,14,2,lo,636092,2448,0,0,0,0,0,0,636092,2448,0,0,0,0,0,0
[PI-INFO] Paramount Iteration,10,2,2.685186,0.428381
[RU-INFO] Resources Stats,10,2,1.634754,0.599543,113336,0,0,0,1831,12,0,640,0,0,0,0,2310,86
[NT-INFO] Network Stats,10,2,ens4,66669378416,2531850,0,0,0,0,0,0,66256832244,2595148,0,0,0,0,0,0
[NT-INFO] Network Stats,10,2,lo,636092,2448,0,0,0,0,0,0,636092,2448,0,0,0,0,0,0
[RU-INFO] Resources Stats,12,2,1.615856,0.610434,112972,0,0,0,1820,12,0,744,0,0,0,0,2308,101
[NT-INFO] Network Stats,12,2,ens4,66669378416,2531850,0,0,0,0,0,0,66256832244,2595148,0,0,0,0,0,0
[NT-INFO] Network Stats,12,2,lo,636092,2448,0,0,0,0,0,0,636092,2448,0,0,0,0,0,0
[PI-INFO] Paramount Iteration,11,2,2.687894,0.430932
[RU-INFO] Resources Stats,11,2,1.658254,0.577997,115132,0,0,0,1810,14,0,432,0,0,0,0,2292,91
[NT-INFO] Network Stats,11,2,ens4,66669378944,2531858,0,0,0,0,0,0,66257056726,2595158,0,0,0,0,0,0
[NT-INFO] Network Stats,11,2,lo,636092,2448,0,0,0,0,0,0,636092,2448,0,0,0,0,0,0
[PI-INFO] Paramount Iteration,15,2,2.686157,0.426794
[RU-INFO] Resources Stats,15,2,1.652821,0.586871,112952,0,0,0,1809,25,0,1768,0,0,0,0,2276,117
[NT-INFO] Network Stats,15,2,ens4,66669379208,2531862,0,0,0,0,0,0,66257057491,2595162,0,0,0,0,0,0
[NT-INFO] Network Stats,15,2,lo,636092,2448,0,0,0,0,0,0,636092,2448,0,0,0,0,0,0
[PI-INFO] Paramount Iteration,0,2,2.694376,0.424501
[RU-INFO] Resources Stats,0,2,1.675801,0.567932,115040,0,0,0,1810,24,0,1992,0,0,0,0,2311,110
[NT-INFO] Network Stats,0,2,lo,626804,2322,0,0,0,0,0,0,626804,2322,0,0,0,0,0,0
[NT-INFO] Network Stats,0,2,ens4,66472626349,2524628,0,0,0,0,0,0,66500707446,2350189,0,0,0,0,0,0
        3
[PI-INFO] Paramount Iteration,2,3,2.980698,0.298659
[RU-INFO] Resources Stats,2,3,1.873706,0.656598,115140,0,0,0,1844,11,0,1016,0,0,0,0,2306,103
[NT-INFO] Network Stats,2,3,lo,626804,2322,0,0,0,0,0,0,626804,2322,0,0,0,0,0,0
[NT-INFO] Network Stats,2,3,ens4,66609380535,2531038,0,0,0,0,0,0,66635846728,2357007,0,0,0,0,0,0
[PI-INFO] Paramount Iteration,12,3,2.979459,0.295868
[RU-INFO] Resources Stats,12,3,1.731355,0.789881,112972,0,0,0,1827,12,0,744,0,0,0,0,2308,130
[NT-INFO] Network Stats,12,3,ens4,66804744792,2538481,0,0,0,0,0,0,66392806011,2601250,0,0,0,0,0,0
[NT-INFO] Network Stats,12,3,lo,636092,2448,0,0,0,0,0,0,636092,2448,0,0,0,0,0,0
[PI-INFO] Paramount Iteration,10,3,2.980905,0.295719
[RU-INFO] Resources Stats,10,3,1.774447,0.755339,113336,0,0,0,1837,12,0,640,0,0,0,0,2310,105
[NT-INFO] Network Stats,10,3,ens4,66804744792,2538481,0,0,0,0,0,0,66392806011,2601250,0,0,0,0,0,0
[NT-INFO] Network Stats,10,3,lo,636092,2448,0,0,0,0,0,0,636092,2448,0,0,0,0,0,0
[PI-INFO] Paramount Iteration,3,3,2.982445,0.299915
[RU-INFO] Resources Stats,3,3,1.812130,0.715209,115208,0,0,0,1818,11,0,776,0,0,0,0,2305,146
[NT-INFO] Network Stats,3,3,lo,626804,2322,0,0,0,0,0,0,626804,2322,0,0,0,0,0,0
[NT-INFO] Network Stats,3,3,ens4,66609381943,2531043,0,0,0,0,0,0,66635884214,2357012,0,0,0,0,0,0
[PI-INFO] Paramount Iteration,4,3,2.981504,0.500475
[RU-INFO] Resources Stats,4,3,1.859259,0.676094,115192,0,0,0,1835,12,0,792,0,0,0,0,2306,91
[NT-INFO] Network Stats,4,3,lo,626804,2322,0,0,0,0,0,0,626804,2322,0,0,0,0,0,0
[NT-INFO] Network Stats,4,3,ens4,66609381943,2531043,0,0,0,0,0,0,66635884214,2357012,0,0,0,0,0,0
[PI-INFO] Paramount Iteration,9,3,2.982273,0.503206
[RU-INFO] Resources Stats,9,3,1.795835,0.735932,113108,0,0,0,1830,19,0,1376,0,0,0,0,2306,100
[PI-INFO] Paramount Iteration,13,3,2.979630,0.298306
[NT-INFO] Network Stats,9,3,ens4,66804745122,2538486,0,0,0,0,0,0,66392807253,2601255,0,0,0,0,0,0
[NT-INFO] Network Stats,9,3,lo,636092,2448,0,0,0,0,0,0,636092,2448,0,0,0,0,0,0
[RU-INFO] Resources Stats,13,3,1.784389,0.743495,113044,0,0,0,1817,11,0,568,0,0,0,0,2299,114
[NT-INFO] Network Stats,13,3,ens4,66804745122,2538486,0,0,0,0,0,0,66393036729,2601259,0,0,0,0,0,0
[NT-INFO] Network Stats,13,3,lo,636092,2448,0,0,0,0,0,0,636092,2448,0,0,0,0,0,0
[PI-INFO] Paramount Iteration,14,3,2.978828,0.297964
[RU-INFO] Resources Stats,14,3,1.807895,0.725563,115184,0,0,0,1841,11,0,160,0,0,0,0,2297,75
[NT-INFO] Network Stats,14,3,ens4,66804745452,2538491,0,0,0,0,0,0,66393101959,2601265,0,0,0,0,0,0
[NT-INFO] Network Stats,14,3,lo,636092,2448,0,0,0,0,0,0,636092,2448,0,0,0,0,0,0
[PI-INFO] Paramount Iteration,1,3,2.984048,0.300146
[RU-INFO] Resources Stats,1,3,1.885761,0.647350,115108,0,0,0,1826,13,0,696,0,0,0,0,2310,121
[NT-INFO] Network Stats,1,3,lo,626804,2322,0,0,0,0,0,0,626804,2322,0,0,0,0,0,0
[NT-INFO] Network Stats,1,3,ens4,66609384351,2531053,0,0,0,0,0,0,66635884874,2357022,0,0,0,0,0,0
[PI-INFO] Paramount Iteration,6,3,2.980146,0.504925
[RU-INFO] Resources Stats,6,3,1.853565,0.682467,113228,0,0,0,1818,11,0,480,0,0,0,0,2295,103
[NT-INFO] Network Stats,6,3,lo,626804,2322,0,0,0,0,0,0,626804,2322,0,0,0,0,0,0
[NT-INFO] Network Stats,6,3,ens4,66609384583,2531054,0,0,0,0,0,0,66635884940,2357023,0,0,0,0,0,0
[PI-INFO] Paramount Iteration,11,3,2.983641,0.295747
[RU-INFO] Resources Stats,11,3,1.793987,0.737528,115132,0,0,0,1816,14,0,432,0,0,0,0,2292,107
[NT-INFO] Network Stats,11,3,ens4,66804745848,2538497,0,0,0,0,0,0,66393102790,2601270,0,0,0,0,0,0
[NT-INFO] Network Stats,11,3,lo,636092,2448,0,0,0,0,0,0,636092,2448,0,0,0,0,0,0
[PI-INFO] Paramount Iteration,5,3,2.983025,0.504979
[RU-INFO] Resources Stats,5,3,1.912625,0.621503,115240,0,0,0,1824,10,0,416,0,0,0,0,2311,51
[NT-INFO] Network Stats,5,3,lo,626804,2322,0,0,0,0,0,0,626804,2322,0,0,0,0,0,0
[NT-INFO] Network Stats,5,3,ens4,66609385515,2531058,0,0,0,0,0,0,66635885204,2357027,0,0,0,0,0,0
[PI-INFO] Paramount Iteration,8,3,2.985321,0.506123
[RU-INFO] Resources Stats,8,3,1.824305,0.711237,115048,0,0,0,1820,18,0,904,0,0,0,0,2321,88
[NT-INFO] Network Stats,8,3,ens4,66804746112,2538501,0,0,0,0,0,0,66393103556,2601274,0,0,0,0,0,0
[NT-INFO] Network Stats,8,3,lo,636092,2448,0,0,0,0,0,0,636092,2448,0,0,0,0,0,0
[PI-INFO] Paramount Iteration,7,3,2.982231,0.507100
[RU-INFO] Resources Stats,7,3,1.879748,0.660125,113300,0,0,0,1815,11,0,368,0,0,0,0,2303,80
[NT-INFO] Network Stats,7,3,lo,626804,2322,0,0,0,0,0,0,626804,2322,0,0,0,0,0,0
[NT-INFO] Network Stats,7,3,ens4,66609386442,2531062,0,0,0,0,0,0,66635885468,2357031,0,0,0,0,0,0
[PI-INFO] Paramount Iteration,15,3,2.982552,0.296395
[RU-INFO] Resources Stats,15,3,1.792906,0.742718,112952,0,0,0,1816,25,0,1768,0,0,0,0,2276,134
[NT-INFO] Network Stats,15,3,ens4,66804746376,2538505,0,0,0,0,0,0,66393253830,2601282,0,0,0,0,0,0
[NT-INFO] Network Stats,15,3,lo,636092,2448,0,0,0,0,0,0,636092,2448,0,0,0,0,0,0
[PI-INFO] Paramount Iteration,0,3,2.993199,0.298823
[RU-INFO] Resources Stats,0,3,1.808374,0.732151,115040,0,0,0,1814,24,0,1992,0,0,0,0,2311,141
[NT-INFO] Network Stats,0,3,lo,626804,2322,0,0,0,0,0,0,626804,2322,0,0,0,0,0,0
[NT-INFO] Network Stats,0,3,ens4,66609387375,2531066,0,0,0,0,0,0,66635885732,2357035,0,0,0,0,0,0
        4
[PI-INFO] Paramount Iteration,12,4,3.221366,0.241907
[RU-INFO] Resources Stats,12,4,1.860640,0.902370,112972,0,0,0,1828,12,0,744,0,0,0,0,2308,143
[NT-INFO] Network Stats,12,4,ens4,66941793188,2544684,0,0,0,0,0,0,66529372863,2607545,0,0,0,0,0,0
[NT-INFO] Network Stats,12,4,lo,636092,2448,0,0,0,0,0,0,636092,2448,0,0,0,0,0,0
[PI-INFO] Paramount Iteration,10,4,3.223520,0.242615
[RU-INFO] Resources Stats,10,4,1.891860,0.879935,113336,0,0,0,1838,12,0,640,0,0,0,0,2310,124
[NT-INFO] Network Stats,10,4,ens4,66941793386,2544687,0,0,0,0,0,0,66529463851,2607550,0,0,0,0,0,0
[NT-INFO] Network Stats,10,4,lo,636092,2448,0,0,0,0,0,0,636092,2448,0,0,0,0,0,0
[PI-INFO] Paramount Iteration,13,4,3.221732,0.242102
[RU-INFO] Resources Stats,13,4,1.910429,0.858890,113044,0,0,0,1818,11,0,568,0,0,0,0,2299,138
[NT-INFO] Network Stats,13,4,ens4,66941793716,2544692,0,0,0,0,0,0,66529464617,2607554,0,0,0,0,0,0
[NT-INFO] Network Stats,13,4,lo,636092,2448,0,0,0,0,0,0,636092,2448,0,0,0,0,0,0
[PI-INFO] Paramount Iteration,9,4,3.225237,0.242964
[RU-INFO] Resources Stats,9,4,1.918874,0.855498,113108,0,0,0,1830,19,0,1376,0,0,0,0,2306,115
[NT-INFO] Network Stats,9,4,ens4,66941793980,2544696,0,0,0,0,0,0,66529544869,2607559,0,0,0,0,0,0
[NT-INFO] Network Stats,9,4,lo,636092,2448,0,0,0,0,0,0,636092,2448,0,0,0,0,0,0
[PI-INFO] Paramount Iteration,11,4,3.225420,0.241779
[RU-INFO] Resources Stats,11,4,1.919045,0.853795,115132,0,0,0,1817,14,0,432,0,0,0,0,2292,124
[NT-INFO] Network Stats,11,4,ens4,66941794244,2544700,0,0,0,0,0,0,66529624255,2607564,0,0,0,0,0,0
[NT-INFO] Network Stats,11,4,lo,636092,2448,0,0,0,0,0,0,636092,2448,0,0,0,0,0,0
[PI-INFO] Paramount Iteration,8,4,3.226649,0.241328
[RU-INFO] Resources Stats,8,4,1.952776,0.823701,115048,0,0,0,1821,18,0,904,0,0,0,0,2321,101
[NT-INFO] Network Stats,8,4,ens4,66941794508,2544704,0,0,0,0,0,0,66529625021,2607568,0,0,0,0,0,0
[PI-INFO] Paramount Iteration,2,4,3.227669,0.246971
[NT-INFO] Network Stats,8,4,lo,636092,2448,0,0,0,0,0,0,636092,2448,0,0,0,0,0,0
[RU-INFO] Resources Stats,2,4,1.992662,0.784260,115140,0,0,0,1844,11,0,1016,0,0,0,0,2306,117
[NT-INFO] Network Stats,2,4,lo,626804,2322,0,0,0,0,0,0,626804,2322,0,0,0,0,0,0
[NT-INFO] Network Stats,2,4,ens4,66745290776,2537441,0,0,0,0,0,0,66772971758,2362807,0,0,0,0,0,0
[PI-INFO] Paramount Iteration,14,4,3.222948,0.244120
[RU-INFO] Resources Stats,14,4,1.931630,0.845589,115184,0,0,0,1841,11,0,160,0,0,0,0,2297,84
[PI-INFO] Paramount Iteration,3,4,3.227778,0.245333
[NT-INFO] Network Stats,14,4,ens4,66941794706,2544707,0,0,0,0,0,0,66529696250,2607573,0,0,0,0,0,0
[RU-INFO] Resources Stats,3,4,1.948463,0.823577,115208,0,0,0,1818,11,0,776,0,0,0,0,2305,165
[NT-INFO] Network Stats,3,4,lo,626804,2322,0,0,0,0,0,0,626804,2322,0,0,0,0,0,0
[NT-INFO] Network Stats,3,4,ens4,66745291461,2537444,0,0,0,0,0,0,66772971956,2362810,0,0,0,0,0,0
[NT-INFO] Network Stats,14,4,lo,636092,2448,0,0,0,0,0,0,636092,2448,0,0,0,0,0,0
[PI-INFO] Paramount Iteration,6,4,3.223969,0.243823
[RU-INFO] Resources Stats,6,4,2.000903,0.778577,113228,0,0,0,1819,11,0,480,0,0,0,0,2295,119
[NT-INFO] Network Stats,6,4,lo,626804,2322,0,0,0,0,0,0,626804,2322,0,0,0,0,0,0
[NT-INFO] Network Stats,6,4,ens4,66745292187,2537447,0,0,0,0,0,0,66772972220,2362814,0,0,0,0,0,0
[PI-INFO] Paramount Iteration,7,4,3.222545,0.240314
[RU-INFO] Resources Stats,7,4,2.027573,0.752294,113300,0,0,0,1815,11,0,368,0,0,0,0,2303,93
[PI-INFO] Paramount Iteration,4,4,3.227174,0.245670
[RU-INFO] Resources Stats,4,4,1.979873,0.800802,115192,0,0,0,1835,12,0,792,0,0,0,0,2306,107
[NT-INFO] Network Stats,4,4,lo,626804,2322,0,0,0,0,0,0,626804,2322,0,0,0,0,0,0
[NT-INFO] Network Stats,4,4,ens4,66745292187,2537447,0,0,0,0,0,0,66772972220,2362814,0,0,0,0,0,0
[NT-INFO] Network Stats,7,4,lo,626804,2322,0,0,0,0,0,0,626804,2322,0,0,0,0,0,0
[NT-INFO] Network Stats,7,4,ens4,66745292187,2537447,0,0,0,0,0,0,66772972220,2362814,0,0,0,0,0,0
[PI-INFO] Paramount Iteration,1,4,3.229332,0.245284
[RU-INFO] Resources Stats,1,4,2.018171,0.759829,115108,0,0,0,1826,13,0,696,0,0,0,0,2310,138
[NT-INFO] Network Stats,1,4,lo,626804,2322,0,0,0,0,0,0,626804,2322,0,0,0,0,0,0
[NT-INFO] Network Stats,1,4,ens4,66745292187,2537447,0,0,0,0,0,0,66772972220,2362814,0,0,0,0,0,0
[PI-INFO] Paramount Iteration,5,4,3.227589,0.244564
[RU-INFO] Resources Stats,5,4,2.044723,0.733694,115240,0,0,0,1824,10,0,416,0,0,0,0,2311,63
[NT-INFO] Network Stats,5,4,lo,626804,2322,0,0,0,0,0,0,626804,2322,0,0,0,0,0,0
[NT-INFO] Network Stats,5,4,ens4,66745292187,2537447,0,0,0,0,0,0,66772972220,2362814,0,0,0,0,0,0
[PI-INFO] Paramount Iteration,15,4,3.227295,0.244743
[RU-INFO] Resources Stats,15,4,1.901269,0.878737,112952,0,0,0,1817,25,0,1768,0,0,0,0,2276,143
[NT-INFO] Network Stats,15,4,ens4,66941795036,2544712,0,0,0,0,0,0,66529697015,2607577,0,0,0,0,0,0
[NT-INFO] Network Stats,15,4,lo,636092,2448,0,0,0,0,0,0,636092,2448,0,0,0,0,0,0
[PI-INFO] Paramount Iteration,0,4,3.240842,0.247643
[RU-INFO] Resources Stats,0,4,1.929334,0.856592,115040,0,0,0,1814,24,0,1992,0,0,0,0,2311,174
[NT-INFO] Network Stats,0,4,lo,626804,2322,0,0,0,0,0,0,626804,2322,0,0,0,0,0,0
[NT-INFO] Network Stats,0,4,ens4,66745293120,2537451,0,0,0,0,0,0,66772972418,2362817,0,0,0,0,0,0
        5
[PI-INFO] Paramount Iteration,11,5,3.467179,0.241759
[RU-INFO] Resources Stats,11,5,2.051995,0.962122,115132,0,0,0,1819,14,0,432,0,0,0,0,2292,138
[PI-INFO] Paramount Iteration,9,5,3.467826,0.242589
[NT-INFO] Network Stats,11,5,ens4,67076009822,2550984,0,0,0,0,0,0,66666114590,2613606,0,0,0,0,0,0
[NT-INFO] Network Stats,11,5,lo,636092,2448,0,0,0,0,0,0,636092,2448,0,0,0,0,0,0
[RU-INFO] Resources Stats,9,5,2.045556,0.970840,113108,0,0,0,1831,19,0,1376,0,0,0,0,2306,134
[NT-INFO] Network Stats,9,5,ens4,67076009822,2550984,0,0,0,0,0,0,66666179424,2613607,0,0,0,0,0,0
[NT-INFO] Network Stats,9,5,lo,636092,2448,0,0,0,0,0,0,636092,2448,0,0,0,0,0,0
[PI-INFO] Paramount Iteration,10,5,3.469456,0.245936
[RU-INFO] Resources Stats,10,5,2.016832,1.000413,113336,0,0,0,1840,12,0,640,0,0,0,0,2310,142
[PI-INFO] Paramount Iteration,8,5,3.469618,0.242969
[NT-INFO] Network Stats,10,5,ens4,67076010284,2550991,0,0,0,0,0,0,66666194511,2613613,0,0,0,0,0,0
[NT-INFO] Network Stats,10,5,lo,636092,2448,0,0,0,0,0,0,636092,2448,0,0,0,0,0,0
[RU-INFO] Resources Stats,8,5,2.059510,0.959498,115048,0,0,0,1821,18,0,904,0,0,0,0,2321,114
[NT-INFO] Network Stats,8,5,ens4,67076010284,2550991,0,0,0,0,0,0,66666194577,2613614,0,0,0,0,0,0
[PI-INFO] Paramount Iteration,5,5,3.467921,0.240332
[NT-INFO] Network Stats,8,5,lo,636092,2448,0,0,0,0,0,0,636092,2448,0,0,0,0,0,0
[RU-INFO] Resources Stats,5,5,2.164684,0.853847,115240,0,0,0,1826,10,0,416,0,0,0,0,2311,71
[NT-INFO] Network Stats,5,5,lo,626804,2322,0,0,0,0,0,0,626804,2322,0,0,0,0,0,0
[NT-INFO] Network Stats,5,5,ens4,66882128135,2543864,0,0,0,0,0,0,66906675528,2368803,0,0,0,0,0,0
[PI-INFO] Paramount Iteration,4,5,3.470278,0.243104
[RU-INFO] Resources Stats,4,5,2.102844,0.920748,115192,0,0,0,1837,12,0,792,0,0,0,0,2306,120
[NT-INFO] Network Stats,4,5,lo,626804,2322,0,0,0,0,0,0,626804,2322,0,0,0,0,0,0
[NT-INFO] Network Stats,4,5,ens4,66882128615,2543866,0,0,0,0,0,0,66906675660,2368805,0,0,0,0,0,0
[PI-INFO] Paramount Iteration,12,5,3.470018,0.248652
[RU-INFO] Resources Stats,12,5,1.988768,1.022338,112972,0,0,0,1830,12,0,744,0,0,0,0,2308,156
[NT-INFO] Network Stats,12,5,ens4,67076010746,2550998,0,0,0,0,0,0,66666266341,2613621,0,0,0,0,0,0
[NT-INFO] Network Stats,12,5,lo,636092,2448,0,0,0,0,0,0,636092,2448,0,0,0,0,0,0
[PI-INFO] Paramount Iteration,6,5,3.468694,0.244725
[RU-INFO] Resources Stats,6,5,2.152970,0.870864,113228,0,0,0,1821,11,0,480,0,0,0,0,2295,134
[NT-INFO] Network Stats,6,5,lo,626804,2322,0,0,0,0,0,0,626804,2322,0,0,0,0,0,0
[NT-INFO] Network Stats,6,5,ens4,66882129547,2543870,0,0,0,0,0,0,66906675924,2368809,0,0,0,0,0,0
[PI-INFO] Paramount Iteration,7,5,3.467412,0.244867
[RU-INFO] Resources Stats,7,5,2.151696,0.872744,113300,0,0,0,1815,11,0,368,0,0,0,0,2303,104
[NT-INFO] Network Stats,7,5,lo,626804,2322,0,0,0,0,0,0,626804,2322,0,0,0,0,0,0
[NT-INFO] Network Stats,7,5,ens4,66882129547,2543870,0,0,0,0,0,0,66906675924,2368809,0,0,0,0,0,0
[PI-INFO] Paramount Iteration,3,5,3.473843,0.246065
[RU-INFO] Resources Stats,3,5,2.066603,0.951038,115208,0,0,0,1820,11,0,776,0,0,0,0,2305,196
[NT-INFO] Network Stats,3,5,lo,626804,2322,0,0,0,0,0,0,626804,2322,0,0,0,0,0,0
[NT-INFO] Network Stats,3,5,ens4,66882129547,2543870,0,0,0,0,0,0,66906675924,2368809,0,0,0,0,0,0
[PI-INFO] Paramount Iteration,2,5,3.474496,0.246827
[RU-INFO] Resources Stats,2,5,2.123568,0.899817,115140,0,0,0,1846,11,0,1016,0,0,0,0,2306,132
[NT-INFO] Network Stats,2,5,lo,626804,2322,0,0,0,0,0,0,626804,2322,0,0,0,0,0,0
[NT-INFO] Network Stats,2,5,ens4,66882129547,2543870,0,0,0,0,0,0,66906675924,2368809,0,0,0,0,0,0
[PI-INFO] Paramount Iteration,1,5,3.675767,0.446435
[RU-INFO] Resources Stats,1,5,2.192170,1.031845,115108,0,0,0,1827,13,0,696,0,0,0,0,2310,157
[NT-INFO] Network Stats,1,5,lo,626804,2322,0,0,0,0,0,0,626804,2322,0,0,0,0,0,0
[NT-INFO] Network Stats,1,5,ens4,66882133271,2543924,0,0,0,0,0,0,66909268528,2368895,0,0,0,0,0,0
[PI-INFO] Paramount Iteration,13,5,3.678114,0.456382
[RU-INFO] Resources Stats,13,5,2.142055,1.083061,113044,0,0,0,1820,11,0,568,0,0,0,0,2299,164
[NT-INFO] Network Stats,13,5,ens4,67078911300,2551071,0,0,0,0,0,0,66666499611,2613683,0,0,0,0,0,0
[NT-INFO] Network Stats,13,5,lo,636092,2448,0,0,0,0,0,0,636092,2448,0,0,0,0,0,0
[PI-INFO] Paramount Iteration,14,5,3.677719,0.454771
[RU-INFO] Resources Stats,14,5,2.118359,1.113239,115184,0,0,0,1842,11,0,160,0,0,0,0,2297,96
[NT-INFO] Network Stats,14,5,ens4,67078911564,2551075,0,0,0,0,0,0,66666515029,2613687,0,0,0,0,0,0
[NT-INFO] Network Stats,14,5,lo,636092,2448,0,0,0,0,0,0,636092,2448,0,0,0,0,0,0
[PI-INFO] Paramount Iteration,0,5,3.683945,0.443103
[RU-INFO] Resources Stats,0,5,2.123325,1.103649,115040,0,0,0,1814,24,0,1992,0,0,0,0,2311,200
[NT-INFO] Network Stats,0,5,lo,626804,2322,0,0,0,0,0,0,626804,2322,0,0,0,0,0,0
[NT-INFO] Network Stats,0,5,ens4,66882135134,2543932,0,0,0,0,0,0,66909561332,2368907,0,0,0,0,0,0
        6
[PI-INFO] Paramount Iteration,15,5,3.680840,0.453545
[RU-INFO] Resources Stats,15,5,2.058185,1.174964,112952,0,0,0,1818,25,0,1768,0,0,0,0,2276,158
[NT-INFO] Network Stats,15,5,ens4,67078911828,2551079,0,0,0,0,0,0,66666515794,2613691,0,0,0,0,0,0
[NT-INFO] Network Stats,15,5,lo,636092,2448,0,0,0,0,0,0,636092,2448,0,0,0,0,0,0
[PI-INFO] Paramount Iteration,2,6,3.922402,0.447906
[RU-INFO] Resources Stats,2,6,2.327280,1.143646,115140,0,0,0,1847,11,0,1016,0,0,0,0,2306,148
[NT-INFO] Network Stats,2,6,lo,626804,2322,0,0,0,0,0,0,626804,2322,0,0,0,0,0,0
[NT-INFO] Network Stats,2,6,ens4,67017100079,2550453,0,0,0,0,0,0,67047149172,2374822,0,0,0,0,0,0
[PI-INFO] Paramount Iteration,4,6,3.921717,0.451439
[RU-INFO] Resources Stats,4,6,2.301634,1.172909,115192,0,0,0,1838,12,0,792,0,0,0,0,2306,140
[NT-INFO] Network Stats,4,6,lo,626804,2322,0,0,0,0,0,0,626804,2322,0,0,0,0,0,0
[NT-INFO] Network Stats,4,6,ens4,67017100079,2550453,0,0,0,0,0,0,67047149172,2374822,0,0,0,0,0,0
[PI-INFO] Paramount Iteration,3,6,3.924642,0.450799
[RU-INFO] Resources Stats,3,6,2.271815,1.196114,115208,0,0,0,1820,11,0,776,0,0,0,0,2305,220
[NT-INFO] Network Stats,3,6,lo,626804,2322,0,0,0,0,0,0,626804,2322,0,0,0,0,0,0
[NT-INFO] Network Stats,3,6,ens4,67017100079,2550453,0,0,0,0,0,0,67047149172,2374822,0,0,0,0,0,0
[PI-INFO] Paramount Iteration,12,6,3.922953,0.452935
[PI-INFO] Paramount Iteration,10,6,3.924653,0.455197
[RU-INFO] Resources Stats,10,6,2.195993,1.275996,113336,0,0,0,1840,12,0,640,0,0,0,0,2310,168
[NT-INFO] Network Stats,10,6,ens4,67216521730,2557275,0,0,0,0,0,0,66800547071,2620223,0,0,0,0,0,0
[NT-INFO] Network Stats,10,6,lo,636092,2448,0,0,0,0,0,0,636092,2448,0,0,0,0,0,0
[RU-INFO] Resources Stats,12,6,2.169225,1.294344,112972,0,0,0,1830,12,0,744,0,0,0,0,2308,170
[NT-INFO] Network Stats,12,6,ens4,67216521730,2557275,0,0,0,0,0,0,66800547071,2620223,0,0,0,0,0,0
[NT-INFO] Network Stats,12,6,lo,636092,2448,0,0,0,0,0,0,636092,2448,0,0,0,0,0,0
[PI-INFO] Paramount Iteration,9,6,3.926012,0.458186
[RU-INFO] Resources Stats,9,6,2.242699,1.231285,113108,0,0,0,1831,19,0,1376,0,0,0,0,2306,152
[NT-INFO] Network Stats,9,6,ens4,67216522258,2557283,0,0,0,0,0,0,66801049115,2620238,0,0,0,0,0,0
[NT-INFO] Network Stats,9,6,lo,636092,2448,0,0,0,0,0,0,636092,2448,0,0,0,0,0,0
[PI-INFO] Paramount Iteration,6,6,3.923217,0.454523
[PI-INFO] Paramount Iteration,8,6,3.926672,0.457054
[RU-INFO] Resources Stats,6,6,2.370933,1.106972,113228,0,0,0,1822,11,0,480,0,0,0,0,2295,153
[RU-INFO] Resources Stats,8,6,2.239453,1.236114,115048,0,0,0,1822,18,0,904,0,0,0,0,2321,127
[NT-INFO] Network Stats,6,6,lo,626804,2322,0,0,0,0,0,0,626804,2322,0,0,0,0,0,0
[NT-INFO] Network Stats,6,6,ens4,67017102872,2550465,0,0,0,0,0,0,67047352066,2374837,0,0,0,0,0,0
[NT-INFO] Network Stats,8,6,ens4,67216522522,2557287,0,0,0,0,0,0,66801325819,2620246,0,0,0,0,0,0
[NT-INFO] Network Stats,8,6,lo,636092,2448,0,0,0,0,0,0,636092,2448,0,0,0,0,0,0
[PI-INFO] Paramount Iteration,7,6,3.922292,0.454880
[RU-INFO] Resources Stats,7,6,2.334001,1.144905,113300,0,0,0,1816,11,0,368,0,0,0,0,2303,122
[NT-INFO] Network Stats,7,6,lo,626804,2322,0,0,0,0,0,0,626804,2322,0,0,0,0,0,0
[NT-INFO] Network Stats,7,6,ens4,67017103800,2550469,0,0,0,0,0,0,67047352330,2374841,0,0,0,0,0,0
[PI-INFO] Paramount Iteration,11,6,3.927250,0.460071
[RU-INFO] Resources Stats,11,6,2.246501,1.227181,115132,0,0,0,1819,14,0,432,0,0,0,0,2292,159
[NT-INFO] Network Stats,11,6,ens4,67216522786,2557291,0,0,0,0,0,0,66801370230,2620250,0,0,0,0,0,0
[NT-INFO] Network Stats,11,6,lo,636092,2448,0,0,0,0,0,0,636092,2448,0,0,0,0,0,0
[PI-INFO] Paramount Iteration,1,6,3.929198,0.253431
[RU-INFO] Resources Stats,1,6,2.324565,1.152245,115108,0,0,0,1828,13,0,696,0,0,0,0,2310,183
[NT-INFO] Network Stats,1,6,lo,626804,2322,0,0,0,0,0,0,626804,2322,0,0,0,0,0,0
[NT-INFO] Network Stats,1,6,ens4,67017104732,2550473,0,0,0,0,0,0,67047352594,2374845,0,0,0,0,0,0
[PI-INFO] Paramount Iteration,13,6,3.925765,0.247651
[RU-INFO] Resources Stats,13,6,2.265350,1.206850,113044,0,0,0,1820,11,0,568,0,0,0,0,2299,180
[NT-INFO] Network Stats,13,6,ens4,67216523050,2557295,0,0,0,0,0,0,66801370996,2620254,0,0,0,0,0,0
[NT-INFO] Network Stats,13,6,lo,636092,2448,0,0,0,0,0,0,636092,2448,0,0,0,0,0,0
[PI-INFO] Paramount Iteration,14,6,3.925273,0.247554
[RU-INFO] Resources Stats,14,6,2.225705,1.252960,115184,0,0,0,1842,11,0,160,0,0,0,0,2297,112
[NT-INFO] Network Stats,14,6,ens4,67216523314,2557299,0,0,0,0,0,0,66801487856,2620259,0,0,0,0,0,0
[NT-INFO] Network Stats,14,6,lo,636092,2448,0,0,0,0,0,0,636092,2448,0,0,0,0,0,0
[PI-INFO] Paramount Iteration,5,6,3.927726,0.459805
[RU-INFO] Resources Stats,5,6,2.332076,1.146003,115240,0,0,0,1827,10,0,416,0,0,0,0,2311,82
[NT-INFO] Network Stats,5,6,lo,626804,2322,0,0,0,0,0,0,626804,2322,0,0,0,0,0,0
[NT-INFO] Network Stats,5,6,ens4,67017106596,2550481,0,0,0,0,0,0,67047353122,2374853,0,0,0,0,0,0
[PI-INFO] Paramount Iteration,15,6,3.929404,0.248564
[RU-INFO] Resources Stats,15,6,2.186316,1.295003,112952,0,0,0,1818,25,0,1768,0,0,0,0,2276,168
[NT-INFO] Network Stats,15,6,ens4,67216523578,2557303,0,0,0,0,0,0,66801488622,2620263,0,0,0,0,0,0
[NT-INFO] Network Stats,15,6,lo,636092,2448,0,0,0,0,0,0,636092,2448,0,0,0,0,0,0
[PI-INFO] Paramount Iteration,0,6,3.939179,0.255234
[RU-INFO] Resources Stats,0,6,2.259913,1.219953,115040,0,0,0,1814,24,0,1992,0,0,0,0,2311,228
[NT-INFO] Network Stats,0,6,lo,626804,2322,0,0,0,0,0,0,626804,2322,0,0,0,0,0,0
[NT-INFO] Network Stats,0,6,ens4,67017107529,2550485,0,0,0,0,0,0,67047353320,2374856,0,0,0,0,0,0
        7
[PI-INFO] Paramount Iteration,10,7,4.148898,0.224245
[RU-INFO] Resources Stats,10,7,2.319958,1.375975,113336,0,0,0,1846,12,0,640,0,0,0,0,2310,183
[PI-INFO] Paramount Iteration,9,7,4.149158,0.223146
[RU-INFO] Resources Stats,9,7,2.357808,1.338755,113380,0,0,0,1839,19,0,1376,0,0,0,0,2306,171
[NT-INFO] Network Stats,9,7,ens4,67352291648,2563493,0,0,0,0,0,0,66937005139,2626107,0,0,0,0,0,0
[NT-INFO] Network Stats,9,7,lo,636092,2448,0,0,0,0,0,0,636092,2448,0,0,0,0,0,0
[NT-INFO] Network Stats,10,7,ens4,67352291648,2563493,0,0,0,0,0,0,66937005139,2626107,0,0,0,0,0,0
[PI-INFO] Paramount Iteration,12,7,4.147788,0.224835
[NT-INFO] Network Stats,10,7,lo,636092,2448,0,0,0,0,0,0,636092,2448,0,0,0,0,0,0
[RU-INFO] Resources Stats,12,7,2.301363,1.386411,112972,0,0,0,1836,12,0,744,0,0,0,0,2308,185
[PI-INFO] Paramount Iteration,2,7,4.150395,0.227993
[RU-INFO] Resources Stats,2,7,2.459063,1.239527,115140,0,0,0,1853,11,0,1016,0,0,0,0,2306,159
[NT-INFO] Network Stats,2,7,lo,626804,2322,0,0,0,0,0,0,626804,2322,0,0,0,0,0,0
[NT-INFO] Network Stats,2,7,ens4,67153518436,2556761,0,0,0,0,0,0,67183429972,2380987,0,0,0,0,0,0
[NT-INFO] Network Stats,12,7,ens4,67352291714,2563494,0,0,0,0,0,0,66937005410,2626109,0,0,0,0,0,0
[NT-INFO] Network Stats,12,7,lo,636092,2448,0,0,0,0,0,0,636092,2448,0,0,0,0,0,0
[PI-INFO] Paramount Iteration,4,7,4.150076,0.228359
[PI-INFO] Paramount Iteration,8,7,4.150629,0.223957
[RU-INFO] Resources Stats,8,7,2.359078,1.340020,115048,0,0,0,1830,18,0,904,0,0,0,0,2321,140
[PI-INFO] Paramount Iteration,3,7,4.151455,0.226813
[RU-INFO] Resources Stats,4,7,2.448261,1.254281,115468,0,0,0,1844,12,0,792,0,0,0,0,2306,155
[NT-INFO] Network Stats,4,7,lo,626804,2322,0,0,0,0,0,0,626804,2322,0,0,0,0,0,0
[NT-INFO] Network Stats,4,7,ens4,67153518918,2556763,0,0,0,0,0,0,67183430104,2380989,0,0,0,0,0,0
[NT-INFO] Network Stats,8,7,ens4,67352292242,2563502,0,0,0,0,0,0,66937132548,2626117,0,0,0,0,0,0
[NT-INFO] Network Stats,8,7,lo,636092,2448,0,0,0,0,0,0,636092,2448,0,0,0,0,0,0
[RU-INFO] Resources Stats,3,7,2.406688,1.287578,115208,0,0,0,1826,11,0,776,0,0,0,0,2305,239
[NT-INFO] Network Stats,3,7,lo,626804,2322,0,0,0,0,0,0,626804,2322,0,0,0,0,0,0
[NT-INFO] Network Stats,3,7,ens4,67153519122,2556764,0,0,0,0,0,0,67183430170,2380990,0,0,0,0,0,0
[PI-INFO] Paramount Iteration,1,7,4.151868,0.222670
[RU-INFO] Resources Stats,1,7,2.451360,1.247746,115108,0,0,0,1835,13,0,696,0,0,0,0,2310,203
[NT-INFO] Network Stats,1,7,lo,626804,2322,0,0,0,0,0,0,626804,2322,0,0,0,0,0,0
[NT-INFO] Network Stats,1,7,ens4,67153519846,2556767,0,0,0,0,0,0,67183430368,2380993,0,0,0,0,0,0
[PI-INFO] Paramount Iteration,13,7,4.148432,0.222667
[RU-INFO] Resources Stats,13,7,2.378682,1.315696,113044,0,0,0,1825,11,0,568,0,0,0,0,2299,199
[NT-INFO] Network Stats,13,7,ens4,67352292506,2563506,0,0,0,0,0,0,66937137535,2626121,0,0,0,0,0,0
[NT-INFO] Network Stats,13,7,lo,636092,2448,0,0,0,0,0,0,636092,2448,0,0,0,0,0,0
[PI-INFO] Paramount Iteration,7,7,4.146927,0.224635
[RU-INFO] Resources Stats,7,7,2.454062,1.249121,113300,0,0,0,1824,11,0,368,0,0,0,0,2303,138
[NT-INFO] Network Stats,7,7,lo,626804,2322,0,0,0,0,0,0,626804,2322,0,0,0,0,0,0
[PI-INFO] Paramount Iteration,11,7,4.151775,0.224525
[NT-INFO] Network Stats,7,7,ens4,67153520778,2556771,0,0,0,0,0,0,67183430632,2380997,0,0,0,0,0,0
[RU-INFO] Resources Stats,11,7,2.370525,1.327174,115132,0,0,0,1824,14,0,432,0,0,0,0,2292,178
[NT-INFO] Network Stats,11,7,ens4,67352292770,2563510,0,0,0,0,0,0,66937267067,2626126,0,0,0,0,0,0
[NT-INFO] Network Stats,11,7,lo,636092,2448,0,0,0,0,0,0,636092,2448,0,0,0,0,0,0
[PI-INFO] Paramount Iteration,6,7,4.148926,0.225709
[RU-INFO] Resources Stats,6,7,2.479607,1.223702,113584,0,0,0,1829,11,0,480,0,0,0,0,2295,170
[PI-INFO] Paramount Iteration,14,7,4.148386,0.223113
[NT-INFO] Network Stats,6,7,lo,626804,2322,0,0,0,0,0,0,626804,2322,0,0,0,0,0,0
[NT-INFO] Network Stats,6,7,ens4,67153521478,2556774,0,0,0,0,0,0,67183430830,2381000,0,0,0,0,0,0
[RU-INFO] Resources Stats,14,7,2.348889,1.352512,115472,0,0,0,1850,11,0,160,0,0,0,0,2297,125
[NT-INFO] Network Stats,14,7,ens4,67352292902,2563512,0,0,0,0,0,0,66937649481,2626134,0,0,0,0,0,0
[NT-INFO] Network Stats,14,7,lo,636092,2448,0,0,0,0,0,0,636092,2448,0,0,0,0,0,0
[PI-INFO] Paramount Iteration,5,7,4.152795,0.225069
[RU-INFO] Resources Stats,5,7,2.476609,1.226282,115564,0,0,0,1832,10,0,416,0,0,0,0,2311,90
[NT-INFO] Network Stats,5,7,lo,626804,2322,0,0,0,0,0,0,626804,2322,0,0,0,0,0,0
[NT-INFO] Network Stats,5,7,ens4,67153522642,2556779,0,0,0,0,0,0,67183431160,2381005,0,0,0,0,0,0
[PI-INFO] Paramount Iteration,15,7,4.152548,0.223144
[RU-INFO] Resources Stats,15,7,2.325552,1.378549,112952,0,0,0,1826,25,0,1768,0,0,0,0,2276,176
[NT-INFO] Network Stats,15,7,ens4,67352293298,2563518,0,0,0,0,0,0,66937650993,2626144,0,0,0,0,0,0
[NT-INFO] Network Stats,15,7,lo,636092,2448,0,0,0,0,0,0,636092,2448,0,0,0,0,0,0
[PI-INFO] Paramount Iteration,0,7,4.163016,0.223837
[RU-INFO] Resources Stats,0,7,2.390510,1.311182,115040,0,0,0,1823,24,0,1992,0,0,0,0,2311,258
[NT-INFO] Network Stats,0,7,lo,626804,2322,0,0,0,0,0,0,626804,2322,0,0,0,0,0,0
[NT-INFO] Network Stats,0,7,ens4,67153523641,2556784,0,0,0,0,0,0,67183431424,2381009,0,0,0,0,0,0
        8
[PI-INFO] Paramount Iteration,12,8,4.371985,0.224197
[RU-INFO] Resources Stats,12,8,2.425209,1.486289,112972,0,0,0,1837,12,0,744,0,0,0,0,2308,202
[NT-INFO] Network Stats,12,8,ens4,67489708288,2569274,0,0,0,0,0,0,67071847509,2632087,0,0,0,0,0,0
[PI-INFO] Paramount Iteration,10,8,4.373946,0.225048
[NT-INFO] Network Stats,12,8,lo,636092,2448,0,0,0,0,0,0,636092,2448,0,0,0,0,0,0
[RU-INFO] Resources Stats,10,8,2.440257,1.480156,113336,0,0,0,1846,12,0,640,0,0,0,0,2310,198
[NT-INFO] Network Stats,10,8,ens4,67489708354,2569275,0,0,0,0,0,0,67072114200,2632093,0,0,0,0,0,0
[NT-INFO] Network Stats,10,8,lo,636092,2448,0,0,0,0,0,0,636092,2448,0,0,0,0,0,0
[PI-INFO] Paramount Iteration,2,8,4.375453,0.225058
[RU-INFO] Resources Stats,2,8,2.569849,1.352973,115140,0,0,0,1853,11,0,1016,0,0,0,0,2306,181
[NT-INFO] Network Stats,2,8,lo,626804,2322,0,0,0,0,0,0,626804,2322,0,0,0,0,0,0
[NT-INFO] Network Stats,2,8,ens4,67288428229,2562879,0,0,0,0,0,0,67320901960,2386470,0,0,0,0,0,0
[PI-INFO] Paramount Iteration,9,8,4.374904,0.225746
[RU-INFO] Resources Stats,9,8,2.478369,1.443050,113380,0,0,0,1839,19,0,1376,0,0,0,0,2306,195
[NT-INFO] Network Stats,9,8,ens4,67489708816,2569282,0,0,0,0,0,0,67072219003,2632101,0,0,0,0,0,0
[NT-INFO] Network Stats,9,8,lo,636092,2448,0,0,0,0,0,0,636092,2448,0,0,0,0,0,0
[PI-INFO] Paramount Iteration,4,8,4.374643,0.224567
[RU-INFO] Resources Stats,4,8,2.556252,1.370569,115468,0,0,0,1844,12,0,792,0,0,0,0,2306,166
[NT-INFO] Network Stats,4,8,lo,626804,2322,0,0,0,0,0,0,626804,2322,0,0,0,0,0,0
[NT-INFO] Network Stats,4,8,ens4,67288428927,2562882,0,0,0,0,0,0,67320902224,2386474,0,0,0,0,0,0
[PI-INFO] Paramount Iteration,3,8,4.376107,0.224652
[RU-INFO] Resources Stats,3,8,2.526719,1.391701,115208,0,0,0,1827,11,0,776,0,0,0,0,2305,260
[NT-INFO] Network Stats,3,8,lo,626804,2322,0,0,0,0,0,0,626804,2322,0,0,0,0,0,0
[NT-INFO] Network Stats,3,8,ens4,67288429158,2562883,0,0,0,0,0,0,67320902224,2386474,0,0,0,0,0,0
[PI-INFO] Paramount Iteration,1,8,4.376595,0.224727
[RU-INFO] Resources Stats,1,8,2.563443,1.359948,115108,0,0,0,1835,13,0,696,0,0,0,0,2310,222
[NT-INFO] Network Stats,1,8,lo,626804,2322,0,0,0,0,0,0,626804,2322,0,0,0,0,0,0
[NT-INFO] Network Stats,1,8,ens4,67288429158,2562883,0,0,0,0,0,0,67320902224,2386474,0,0,0,0,0,0
[PI-INFO] Paramount Iteration,13,8,4.373404,0.224972
[RU-INFO] Resources Stats,13,8,2.500303,1.418441,113044,0,0,0,1827,11,0,568,0,0,0,0,2299,217
[PI-INFO] Paramount Iteration,11,8,4.376115,0.224340
[PI-INFO] Paramount Iteration,8,8,4.376478,0.225849
[RU-INFO] Resources Stats,8,8,2.477319,1.447107,115048,0,0,0,1830,18,0,904,0,0,0,0,2321,155
[NT-INFO] Network Stats,8,8,ens4,67489709146,2569287,0,0,0,0,0,0,67072492055,2632109,0,0,0,0,0,0
[NT-INFO] Network Stats,8,8,lo,636092,2448,0,0,0,0,0,0,636092,2448,0,0,0,0,0,0
[NT-INFO] Network Stats,13,8,ens4,67489709080,2569286,0,0,0,0,0,0,67072451993,2632108,0,0,0,0,0,0
[NT-INFO] Network Stats,13,8,lo,636092,2448,0,0,0,0,0,0,636092,2448,0,0,0,0,0,0
[RU-INFO] Resources Stats,11,8,2.486491,1.435129,115132,0,0,0,1826,14,0,432,0,0,0,0,2292,191
[NT-INFO] Network Stats,11,8,ens4,67489709080,2569286,0,0,0,0,0,0,67072492055,2632109,0,0,0,0,0,0
[NT-INFO] Network Stats,11,8,lo,636092,2448,0,0,0,0,0,0,636092,2448,0,0,0,0,0,0
[PI-INFO] Paramount Iteration,14,8,4.372848,0.224462
[RU-INFO] Resources Stats,14,8,2.448921,1.476555,115472,0,0,0,1850,11,0,160,0,0,0,0,2297,138
[NT-INFO] Network Stats,14,8,ens4,67489709476,2569292,0,0,0,0,0,0,67072726096,2632118,0,0,0,0,0,0
[NT-INFO] Network Stats,14,8,lo,636092,2448,0,0,0,0,0,0,636092,2448,0,0,0,0,0,0
[PI-INFO] Paramount Iteration,7,8,4.372305,0.225378
[RU-INFO] Resources Stats,7,8,2.596096,1.332154,113300,0,0,0,1824,11,0,368,0,0,0,0,2303,152
[NT-INFO] Network Stats,7,8,lo,626804,2322,0,0,0,0,0,0,626804,2322,0,0,0,0,0,0
[NT-INFO] Network Stats,7,8,ens4,67288432274,2562895,0,0,0,0,0,0,67320903016,2386486,0,0,0,0,0,0
[PI-INFO] Paramount Iteration,6,8,4.374402,0.225476
[RU-INFO] Resources Stats,6,8,2.605561,1.322885,113584,0,0,0,1830,11,0,480,0,0,0,0,2295,185
[NT-INFO] Network Stats,6,8,lo,626804,2322,0,0,0,0,0,0,626804,2322,0,0,0,0,0,0
[NT-INFO] Network Stats,6,8,ens4,67288432274,2562895,0,0,0,0,0,0,67320903016,2386486,0,0,0,0,0,0
[PI-INFO] Paramount Iteration,5,8,4.377026,0.224231
[RU-INFO] Resources Stats,5,8,2.592537,1.334335,115564,0,0,0,1833,10,0,416,0,0,0,0,2311,98
[NT-INFO] Network Stats,5,8,lo,626804,2322,0,0,0,0,0,0,626804,2322,0,0,0,0,0,0
[NT-INFO] Network Stats,5,8,ens4,67288432274,2562895,0,0,0,0,0,0,67320903016,2386486,0,0,0,0,0,0
[PI-INFO] Paramount Iteration,15,8,4.376275,0.223727
[RU-INFO] Resources Stats,15,8,2.465146,1.462307,113288,0,0,0,1827,25,0,1768,0,0,0,0,2276,188
[NT-INFO] Network Stats,15,8,ens4,67489709872,2569298,0,0,0,0,0,0,67072727112,2632123,0,0,0,0,0,0
[NT-INFO] Network Stats,15,8,lo,636092,2448,0,0,0,0,0,0,636092,2448,0,0,0,0,0,0
[PI-INFO] Paramount Iteration,0,8,4.387817,0.224801
[RU-INFO] Resources Stats,0,8,2.524372,1.400206,115040,0,0,0,1823,24,0,1992,0,0,0,0,2311,286
[NT-INFO] Network Stats,0,8,lo,626804,2322,0,0,0,0,0,0,626804,2322,0,0,0,0,0,0
[NT-INFO] Network Stats,0,8,ens4,67288433207,2562899,0,0,0,0,0,0,67320903280,2386490,0,0,0,0,0,0
        9
[PI-INFO] Paramount Iteration,5,9,4.587422,0.210396
[RU-INFO] Resources Stats,5,9,2.711256,1.425712,115564,0,0,0,1833,10,0,416,0,0,0,0,2311,109
[NT-INFO] Network Stats,5,9,lo,626804,2322,0,0,0,0,0,0,626804,2322,0,0,0,0,0,0
[NT-INFO] Network Stats,5,9,ens4,67423840801,2569145,0,0,0,0,0,0,67457303606,2391910,0,0,0,0,0,0
[PI-INFO] Paramount Iteration,4,9,4.591572,0.216929
[RU-INFO] Resources Stats,4,9,2.692582,1.450779,115468,0,0,0,1844,12,0,792,0,0,0,0,2306,181
[NT-INFO] Network Stats,4,9,lo,626804,2322,0,0,0,0,0,0,626804,2322,0,0,0,0,0,0
[NT-INFO] Network Stats,4,9,ens4,67423840801,2569145,0,0,0,0,0,0,67457303606,2391910,0,0,0,0,0,0
[PI-INFO] Paramount Iteration,3,9,4.593976,0.217869
[RU-INFO] Resources Stats,3,9,2.648963,1.486785,115208,0,0,0,1827,11,0,776,0,0,0,0,2305,285
[NT-INFO] Network Stats,3,9,lo,626804,2322,0,0,0,0,0,0,626804,2322,0,0,0,0,0,0
[NT-INFO] Network Stats,3,9,ens4,67423840801,2569145,0,0,0,0,0,0,67457303606,2391910,0,0,0,0,0,0
[PI-INFO] Paramount Iteration,10,9,4.595918,0.221972
[PI-INFO] Paramount Iteration,9,9,4.595952,0.221048
[RU-INFO] Resources Stats,9,9,2.588246,1.553746,113380,0,0,0,1839,19,0,1376,0,0,0,0,2306,209
[NT-INFO] Network Stats,9,9,ens4,67627458028,2575041,0,0,0,0,0,0,67207244373,2638055,0,0,0,0,0,0
[NT-INFO] Network Stats,9,9,lo,636092,2448,0,0,0,0,0,0,636092,2448,0,0,0,0,0,0
[PI-INFO] Paramount Iteration,12,9,4.594529,0.222544
[RU-INFO] Resources Stats,12,9,2.571943,1.561537,112972,0,0,0,1837,12,0,744,0,0,0,0,2308,222
[NT-INFO] Network Stats,12,9,ens4,67627458028,2575041,0,0,0,0,0,0,67207244373,2638055,0,0,0,0,0,0
[NT-INFO] Network Stats,12,9,lo,636092,2448,0,0,0,0,0,0,636092,2448,0,0,0,0,0,0
[RU-INFO] Resources Stats,10,9,2.578736,1.563234,113336,0,0,0,1847,12,0,640,0,0,0,0,2310,214
[NT-INFO] Network Stats,10,9,ens4,67627458028,2575041,0,0,0,0,0,0,67207244373,2638055,0,0,0,0,0,0
[NT-INFO] Network Stats,10,9,lo,636092,2448,0,0,0,0,0,0,636092,2448,0,0,0,0,0,0
[PI-INFO] Paramount Iteration,6,9,4.594686,0.220284
[PI-INFO] Paramount Iteration,2,9,4.599215,0.223762
[RU-INFO] Resources Stats,6,9,2.749479,1.398857,113584,0,0,0,1830,11,0,480,0,0,0,0,2295,201
[NT-INFO] Network Stats,6,9,lo,626804,2322,0,0,0,0,0,0,626804,2322,0,0,0,0,0,0
[NT-INFO] Network Stats,6,9,ens4,67423842834,2569152,0,0,0,0,0,0,67457761360,2391925,0,0,0,0,0,0
[RU-INFO] Resources Stats,2,9,2.705467,1.440781,115140,0,0,0,1853,11,0,1016,0,0,0,0,2306,193
[NT-INFO] Network Stats,2,9,lo,626804,2322,0,0,0,0,0,0,626804,2322,0,0,0,0,0,0
[NT-INFO] Network Stats,2,9,ens4,67423842834,2569152,0,0,0,0,0,0,67457761360,2391925,0,0,0,0,0,0
[PI-INFO] Paramount Iteration,11,9,4.598415,0.222300
[RU-INFO] Resources Stats,11,9,2.615589,1.527760,115132,0,0,0,1826,14,0,432,0,0,0,0,2292,204
[NT-INFO] Network Stats,11,9,ens4,67627458490,2575048,0,0,0,0,0,0,67207246240,2638062,0,0,0,0,0,0
[PI-INFO] Paramount Iteration,1,9,4.600017,0.223422
[RU-INFO] Resources Stats,1,9,2.698763,1.447627,115108,0,0,0,1835,13,0,696,0,0,0,0,2310,241
[NT-INFO] Network Stats,1,9,lo,626804,2322,0,0,0,0,0,0,626804,2322,0,0,0,0,0,0
[NT-INFO] Network Stats,1,9,ens4,67423843534,2569155,0,0,0,0,0,0,67457761690,2391930,0,0,0,0,0,0
[NT-INFO] Network Stats,11,9,lo,636092,2448,0,0,0,0,0,0,636092,2448,0,0,0,0,0,0
[PI-INFO] Paramount Iteration,7,9,4.595480,0.223175
[RU-INFO] Resources Stats,7,9,2.729949,1.421179,113300,0,0,0,1824,11,0,368,0,0,0,0,2303,166
[NT-INFO] Network Stats,7,9,lo,626804,2322,0,0,0,0,0,0,626804,2322,0,0,0,0,0,0
[NT-INFO] Network Stats,7,9,ens4,67423843766,2569156,0,0,0,0,0,0,67457761756,2391931,0,0,0,0,0,0
[PI-INFO] Paramount Iteration,13,9,4.597906,0.224502
[RU-INFO] Resources Stats,13,9,2.608330,1.534547,113044,0,0,0,1827,11,0,568,0,0,0,0,2299,234
[NT-INFO] Network Stats,13,9,ens4,67627458754,2575052,0,0,0,0,0,0,67207609192,2638071,0,0,0,0,0,0
[PI-INFO] Paramount Iteration,8,9,4.601009,0.224531
[NT-INFO] Network Stats,13,9,lo,636092,2448,0,0,0,0,0,0,636092,2448,0,0,0,0,0,0
[RU-INFO] Resources Stats,8,9,2.593506,1.555302,115048,0,0,0,1831,18,0,904,0,0,0,0,2321,167
[PI-INFO] Paramount Iteration,14,9,4.597114,0.224266
[NT-INFO] Network Stats,8,9,ens4,67627458820,2575053,0,0,0,0,0,0,67207609463,2638073,0,0,0,0,0,0
[NT-INFO] Network Stats,8,9,lo,636092,2448,0,0,0,0,0,0,636092,2448,0,0,0,0,0,0
[RU-INFO] Resources Stats,14,9,2.568849,1.580522,115472,0,0,0,1850,11,0,160,0,0,0,0,2297,152
[NT-INFO] Network Stats,14,9,ens4,67627458952,2575055,0,0,0,0,0,0,67207722480,2638076,0,0,0,0,0,0
[NT-INFO] Network Stats,14,9,lo,636092,2448,0,0,0,0,0,0,636092,2448,0,0,0,0,0,0
[PI-INFO] Paramount Iteration,15,9,4.600883,0.224608
[RU-INFO] Resources Stats,15,9,2.601310,1.550397,113288,0,0,0,1827,25,0,1768,0,0,0,0,2276,196
[NT-INFO] Network Stats,15,9,ens4,67627459414,2575062,0,0,0,0,0,0,67207724010,2638083,0,0,0,0,0,0
[NT-INFO] Network Stats,15,9,lo,636092,2448,0,0,0,0,0,0,636092,2448,0,0,0,0,0,0
[PI-INFO] Paramount Iteration,0,9,4.612872,0.225055
[RU-INFO] Resources Stats,0,9,2.651758,1.495863,115040,0,0,0,1823,24,0,1992,0,0,0,0,2311,306
[NT-INFO] Network Stats,0,9,lo,626804,2322,0,0,0,0,0,0,626804,2322,0,0,0,0,0,0
[NT-INFO] Network Stats,0,9,ens4,67423847339,2569171,0,0,0,0,0,0,67457762614,2391944,0,0,0,0,0,0
        10
[PI-INFO] Paramount Iteration,12,10,4.832798,0.238269
[RU-INFO] Resources Stats,12,10,2.697223,1.674276,112972,0,0,0,1837,12,0,744,0,0,0,0,2308,241
[NT-INFO] Network Stats,12,10,ens4,67762419108,2581130,0,0,0,0,0,0,67345685527,2643548,0,0,0,0,0,0
[NT-INFO] Network Stats,12,10,lo,636092,2448,0,0,0,0,0,0,636092,2448,0,0,0,0,0,0
[PI-INFO] Paramount Iteration,2,10,4.837149,0.237934
[RU-INFO] Resources Stats,2,10,2.854509,1.529344,115140,0,0,0,1853,11,0,1016,0,0,0,0,2306,208
[NT-INFO] Network Stats,2,10,lo,626804,2322,0,0,0,0,0,0,626804,2322,0,0,0,0,0,0
[NT-INFO] Network Stats,2,10,ens4,67562053893,2575153,0,0,0,0,0,0,67593668924,2398174,0,0,0,0,0,0
[PI-INFO] Paramount Iteration,3,10,4.837646,0.243670
[RU-INFO] Resources Stats,3,10,2.796316,1.582442,115208,0,0,0,1827,11,0,776,0,0,0,0,2305,307
[NT-INFO] Network Stats,3,10,lo,626804,2322,0,0,0,0,0,0,626804,2322,0,0,0,0,0,0
[NT-INFO] Network Stats,3,10,ens4,67562053893,2575153,0,0,0,0,0,0,67593668924,2398174,0,0,0,0,0,0
[PI-INFO] Paramount Iteration,11,10,4.837361,0.238946
[RU-INFO] Resources Stats,11,10,2.738582,1.643149,115132,0,0,0,1826,14,0,432,0,0,0,0,2292,217
[NT-INFO] Network Stats,11,10,ens4,67762419372,2581134,0,0,0,0,0,0,67345899146,2643555,0,0,0,0,0,0
[NT-INFO] Network Stats,11,10,lo,636092,2448,0,0,0,0,0,0,636092,2448,0,0,0,0,0,0
[PI-INFO] Paramount Iteration,10,10,4.838676,0.242758
[RU-INFO] Resources Stats,10,10,2.696072,1.688045,113336,0,0,0,1847,12,0,640,0,0,0,0,2310,230
[NT-INFO] Network Stats,10,10,ens4,67762419636,2581138,0,0,0,0,0,0,67345899915,2643559,0,0,0,0,0,0
[NT-INFO] Network Stats,10,10,lo,636092,2448,0,0,0,0,0,0,636092,2448,0,0,0,0,0,0
[PI-INFO] Paramount Iteration,1,10,4.841296,0.241279
[PI-INFO] Paramount Iteration,6,10,4.837020,0.242334
[RU-INFO] Resources Stats,6,10,2.898758,1.491594,113584,0,0,0,1830,11,0,480,0,0,0,0,2295,215
[NT-INFO] Network Stats,6,10,lo,626804,2322,0,0,0,0,0,0,626804,2322,0,0,0,0,0,0
[NT-INFO] Network Stats,6,10,ens4,67562055765,2575161,0,0,0,0,0,0,67593669452,2398182,0,0,0,0,0,0
[RU-INFO] Resources Stats,1,10,2.839348,1.548006,115108,0,0,0,1835,13,0,696,0,0,0,0,2310,262
[NT-INFO] Network Stats,1,10,lo,626804,2322,0,0,0,0,0,0,626804,2322,0,0,0,0,0,0
[PI-INFO] Paramount Iteration,7,10,4.835520,0.240040
[RU-INFO] Resources Stats,7,10,2.865676,1.525149,113300,0,0,0,1824,11,0,368,0,0,0,0,2303,180
[NT-INFO] Network Stats,7,10,lo,626804,2322,0,0,0,0,0,0,626804,2322,0,0,0,0,0,0
[NT-INFO] Network Stats,7,10,ens4,67562055765,2575161,0,0,0,0,0,0,67593669452,2398182,0,0,0,0,0,0
[NT-INFO] Network Stats,1,10,ens4,67562055765,2575161,0,0,0,0,0,0,67593669452,2398182,0,0,0,0,0,0
[PI-INFO] Paramount Iteration,9,10,4.840731,0.244779
[RU-INFO] Resources Stats,9,10,2.692599,1.693860,113380,0,0,0,1839,19,0,1376,0,0,0,0,2306,225
[NT-INFO] Network Stats,9,10,ens4,67762419900,2581142,0,0,0,0,0,0,67346082514,2643566,0,0,0,0,0,0
[PI-INFO] Paramount Iteration,4,10,4.840370,0.248798
[RU-INFO] Resources Stats,4,10,2.834189,1.557599,115468,0,0,0,1844,12,0,792,0,0,0,0,2306,197
[NT-INFO] Network Stats,4,10,lo,626804,2322,0,0,0,0,0,0,626804,2322,0,0,0,0,0,0
[NT-INFO] Network Stats,4,10,ens4,67562056216,2575163,0,0,0,0,0,0,67593669584,2398184,0,0,0,0,0,0
[NT-INFO] Network Stats,9,10,lo,636092,2448,0,0,0,0,0,0,636092,2448,0,0,0,0,0,0
[PI-INFO] Paramount Iteration,13,10,4.838573,0.240667
[RU-INFO] Resources Stats,13,10,2.720353,1.662661,113044,0,0,0,1827,11,0,568,0,0,0,0,2299,258
[NT-INFO] Network Stats,13,10,ens4,67762420164,2581146,0,0,0,0,0,0,67346121005,2643570,0,0,0,0,0,0
[PI-INFO] Paramount Iteration,14,10,4.837567,0.240453
[RU-INFO] Resources Stats,14,10,2.696874,1.692548,115472,0,0,0,1850,11,0,160,0,0,0,0,2297,162
[NT-INFO] Network Stats,14,10,ens4,67762420164,2581146,0,0,0,0,0,0,67346283695,2643573,0,0,0,0,0,0
[NT-INFO] Network Stats,14,10,lo,636092,2448,0,0,0,0,0,0,636092,2448,0,0,0,0,0,0
[NT-INFO] Network Stats,13,10,lo,636092,2448,0,0,0,0,0,0,636092,2448,0,0,0,0,0,0
[PI-INFO] Paramount Iteration,8,10,4.841851,0.240842
[RU-INFO] Resources Stats,8,10,2.721804,1.667556,115048,0,0,0,1831,18,0,904,0,0,0,0,2321,178
[NT-INFO] Network Stats,8,10,ens4,67762420296,2581148,0,0,0,0,0,0,67346284604,2643577,0,0,0,0,0,0
[NT-INFO] Network Stats,8,10,lo,636092,2448,0,0,0,0,0,0,636092,2448,0,0,0,0,0,0
[PI-INFO] Paramount Iteration,5,10,4.841178,0.253756
[RU-INFO] Resources Stats,5,10,2.820089,1.570277,115564,0,0,0,1833,10,0,416,0,0,0,0,2311,118
[NT-INFO] Network Stats,5,10,lo,626804,2322,0,0,0,0,0,0,626804,2322,0,0,0,0,0,0
[NT-INFO] Network Stats,5,10,ens4,67562059350,2575176,0,0,0,0,0,0,67593670244,2398194,0,0,0,0,0,0
[PI-INFO] Paramount Iteration,15,10,4.839500,0.238617
[RU-INFO] Resources Stats,15,10,2.732248,1.657723,113288,0,0,0,1827,25,0,1768,0,0,0,0,2276,205
[NT-INFO] Network Stats,15,10,ens4,67762420692,2581154,0,0,0,0,0,0,67346350716,2643583,0,0,0,0,0,0
[NT-INFO] Network Stats,15,10,lo,636092,2448,0,0,0,0,0,0,636092,2448,0,0,0,0,0,0
[PI-INFO] Paramount Iteration,0,10,4.858954,0.246082
[RU-INFO] Resources Stats,0,10,2.785045,1.606295,115040,0,0,0,1823,24,0,1992,0,0,0,0,2311,341
[NT-INFO] Network Stats,0,10,lo,626804,2322,0,0,0,0,0,0,626804,2322,0,0,0,0,0,0
[NT-INFO] Network Stats,0,10,ens4,67562060383,2575181,0,0,0,0,0,0,67593670442,2398197,0,0,0,0,0,0
[PI-INFO] PI avg,9,0.282496,10
[PI-INFO] Beta,9,1.769332
[PI-INFO] PI avg,11,0.282371,10
[PI-INFO] Beta,11,1.772333
[PI-INFO] PI avg,10,0.282245,10
[PI-INFO] Beta,10,1.773247
[PI-INFO] PI avg,7,0.282174,10
[PI-INFO] Beta,7,1.773715
[PI-INFO] PI avg,13,0.282377,10
[PI-INFO] Beta,13,1.776424
[PI-INFO] PI avg,6,0.282479,10
[PI-INFO] Beta,6,1.778176
[PI-INFO] PI avg,4,0.282557,10
[PI-INFO] Beta,4,1.779396
[PI-INFO] PI avg,3,0.282029,10
[PI-INFO] Beta,3,1.783179
[PI-INFO] PI avg,5,0.282826,10
[PI-INFO] Beta,5,1.777230
[PI-INFO] PI avg,14,0.281908,10
[PI-INFO] Beta,14,1.787467
[PI-INFO] PI avg,12,0.281717,10
[PI-INFO] Beta,12,1.789574
[PI-INFO] PI avg,15,0.281520,10
[PI-INFO] Beta,15,1.789298
[PI-INFO] PI avg,8,0.282365,10
[PI-INFO] Beta,8,1.786029
[PI-INFO] PI avg,2,0.281553,10
[PI-INFO] Beta,2,1.794060
[PI-INFO] PI avg,1,0.281811,10
[PI-INFO] Beta,1,1.800709


 IS Benchmark Completed
 Class           =                        C
 Size            =                134217728
 Iterations      =                       10
 Time in seconds =                     2.83
 Total processes =                       16
 Active procs    =                       16
 Mop/s total     =                   474.51
 Mop/s/process   =                    29.66
 Operation type  =              keys ranked
 Verification    =               SUCCESSFUL
 Version         =                      3.4
 Compile date    =              23 May 2021

 Compile options:
    MPICC        = mpicc
    CLINK        = $(MPICC)
    CMPI_LIB     = (none)
    CMPI_INC     = (none)
    CFLAGS       = -O3
    CLINKFLAGS   = $(CFLAGS) -O ../../utils/obj/*.o


 Please send feedbacks and/or the results of this run to:

 NPB Development Team
 npb@nas.nasa.gov


[PI-INFO] PI avg,0,0.282056,10
[PI-INFO] Beta,0,1.799189
[PI-INFO] Total time,5.074714
