
Program received signal SIGSEGV: Segmentation fault - invalid memory reference.

Backtrace for this error:

Program received signal SIGSEGV: Segmentation fault - invalid memory reference.

Backtrace for this error:

Program received signal SIGSEGV: Segmentation fault - invalid memory reference.

Backtrace for this error:

Program received signal SIGSEGV: Segmentation fault - invalid memory reference.

Backtrace for this error:

Program received signal SIGSEGV: Segmentation fault - invalid memory reference.

Backtrace for this error:

Program received signal SIGSEGV: Segmentation fault - invalid memory reference.

Backtrace for this error:

Program received signal SIGSEGV: Segmentation fault - invalid memory reference.

Backtrace for this error:

Program received signal SIGSEGV: Segmentation fault - invalid memory reference.

Program received signal SIGSEGV: Segmentation fault - invalid memory reference.

Program received signal SIGSEGV: Segmentation fault - invalid memory reference.

Backtrace for this error:

Backtrace for this error:

Backtrace for this error:

Program received signal SIGSEGV: Segmentation fault - invalid memory reference.

Backtrace for this error:

Program received signal SIGSEGV: Segmentation fault - invalid memory reference.

Backtrace for this error:
#0  0x7fed678288da
#1  0x7fed67827ae3
#2  0x7fed6747f83f
#3  0x7fed675a4b0d
#4  0x55d90d70f560
#5  0x55d90d71ba63
#6  0x55d90d70e40e
#7  0x7fed6746c09a
#8  0x55d90d70e449
#9  0xffffffffffffffff
#0  0x7f7acd97d8da
#1  0x7f7acd97cae3
#2  0x7f7acd5d483f
#3  0x7f7acd6f9b0d
#4  0x564c99375560
#5  0x564c99381a63
#6  0x564c9937440e
#7  0x7f7acd5c109a
#8  0x564c99374449
#9  0xffffffffffffffff
#0  0x7f7e540838da
#1  0x7f7e54082ae3
#2  0x7f7e53cda83f
#3  0x7f7e53dffb0d
#4  0x561d0c37f560
#5  0x561d0c38ba63
#6  0x561d0c37e40e
#7  0x7f7e53cc709a
#8  0x561d0c37e449
#9  0xffffffffffffffff
#0  0x7f23400648da
#1  0x7f2340063ae3
#2  0x7f233fcbb83f
#3  0x7f233fde0b0d
#4  0x55d716d90560

Program received signal SIGSEGV: Segmentation fault - invalid memory reference.

Backtrace for this error:
#5  0x55d716d9ca63
#6  0x55d716d8f40e
#7  0x7f233fca809a
#8  0x55d716d8f449
#9  0xffffffffffffffff
#0  0x7fe2039e08da
#1  0x7fe2039dfae3
#2  0x7fe20363783f
#3  0x7fe20375cb0d
#4  0x559b8768f560
#5  0x559b8769ba63
#6  0x559b8768e40e
#7  0x7fe20362409a
#8  0x559b8768e449
#9  0xffffffffffffffff
#0  0x7fd938f828da

Program received signal SIGSEGV: Segmentation fault - invalid memory reference.
#1  0x7fd938f81ae3

Backtrace for this error:
#2  0x7fd938bd983f
#3  0x7fd938cfeb0d
#4  0x560c0c1e6560
#5  0x560c0c1f2a63
#6  0x560c0c1e540e
#7  0x7fd938bc609a
#8  0x560c0c1e5449
#9  0xffffffffffffffff
--------------------------------------------------------------------------
Primary job  terminated normally, but 1 process returned
a non-zero exit code. Per user-direction, the job has been aborted.
--------------------------------------------------------------------------

Program received signal SIGSEGV: Segmentation fault - invalid memory reference.

Backtrace for this error:
#0  0x7f0a56e368da
#1  0x7f0a56e35ae3
#2  0x7f0a56a8d83f
#3  0x7f0a56bb2b0d
#4  0x55feb57f6560
#5  0x55feb5802a63
#6  0x55feb57f540e
#7  0x7f0a56a7a09a
#8  0x55feb57f5449
#9  0xffffffffffffffff
#0  0x7f0aa6fe08da
#1  0x7f0aa6fdfae3
#2  0x7f0aa6c3783f
#3  0x7f0aa6d5cb0d
#4  0x562d1a28f560
#5  0x562d1a29ba63
#6  0x562d1a28e40e
#7  0x7f0aa6c2409a
#8  0x562d1a28e449
#9  0xffffffffffffffff
#0  0x7f24870708da
#1  0x7f248706fae3
#2  0x7f2486cc783f
#3  0x7f2486decb0d
#4  0x55ea10d7b560
#5  0x55ea10d87a63
#6  0x55ea10d7a40e
#7  0x7f2486cb409a
#8  0x55ea10d7a449
#9  0xffffffffffffffff

Program received signal SIGSEGV: Segmentation fault - invalid memory reference.

Backtrace for this error:
#0  0x7f690f03d8da
#1  0x7f690f03cae3
#2  0x7f690ec9483f
#3  0x7f690edb9b0d
#4  0x55b24e76e560
#5  0x55b24e77aa63
#6  0x55b24e76d40e
#7  0x7f690ec8109a
#8  0x55b24e76d449
#9  0xffffffffffffffff
#0  0x7fae6ed2d8da
#1  0x7fae6ed2cae3
#2  0x7fae6e98483f
#3  0x7fae6eaa9b0d
#4  0x55bde2266560
#5  0x55bde2272a63
#6  0x55bde226540e
#7  0x7fae6e97109a
#8  0x55bde2265449
#9  0xffffffffffffffff
--------------------------------------------------------------------------
mpirun noticed that process rank 3 with PID 0 on node instance-0 exited on signal 11 (Segmentation fault).
--------------------------------------------------------------------------
